start: s
accept: ac
reject: rj
blank: _

s 0 -> s 0 >
s 1 -> s 1 >
s _ -> find-new-letter * ^

find-new-letter 0 -> find-new-letter 0 <
find-new-letter 1 -> find-new-letter 1 <
find-new-letter * -> grab-letter * <

grab-letter 0 -> carry-letter-0 * >
grab-letter 1 -> carry-letter-1 * >
grab-letter _ -> step-and-ac _ >

step-and-ac * -> ac _ >

carry-letter-0 0 -> carry-letter-0 0 >
carry-letter-0 1 -> carry-letter-0 1 >
carry-letter-0 * -> carry-letter-0 0 >
carry-letter-0 _ -> find-new-letter 0 <

carry-letter-1 0 -> carry-letter-1 0 >
carry-letter-1 1 -> carry-letter-1 1 >
carry-letter-1 * -> carry-letter-1 1 >
carry-letter-1 _ -> find-new-letter 1 <
